BP CODE;CUSTOMER;TUKAR FAKTUR;collector;PrintFaktur;PrintFakturPajak;TukarFaktur;invoice dengan Pengiriman;Kwitansi Per Outlet;Print Kwitansi
HT0001;PT ALTAR FILADELFIA;KAMIS;Irfan;Y;Y;Y;N;N;Y
HT0003;CV. SUNRISE BOGA;KAMIS;Ridwan;Y;Y;Y;N;N;Y
HT0008;ASTON HOTEL CENGKARENG;BULANAN -  KAMIS MINGGU 1 DAN MINGGU 2;Fuad;Y;Y;Y;N;N;Y
HT0017;PT. BOGOR RAYA DEVELOPMENT;BARANG PENGIRIMAN;NO COLLECTOR;Y;Y;Y;Y;N;Y
HT0023;DELTASARI ADIPRATAMA;SEBULAN 2 KALI/KWITANSI 1- 15 & 16- 31;Budi;Y;Y;Y;N;N;Y
HT0030;PT GLOBAL SOLUSI NUSANTARA;BARANG PENGIRIMAN;NO COLLECTOR;Y;Y;Y;Y;N;Y
HT0037;PT GRAND INDONESIA;SELASA DAN KAMIS by sistem dari JAM 10-12;NO COLLECTOR;Y;Y;Y;N;N;Y
HT0038;PT GRAND KUNINGAN;SELASA ;Imam;Y;Y;Y;N;N;Y
HT0039;PT. INTERNUSA JAYA SEMESTA;SELASA ;Jefri;Y;Y;Y;N;N;Y
HT0040;PT GRAWITA INDONESIA INDAH;TIAP SENIN Minggu ke 2 dan ke 4. Tarik kwitansi 1 - 15 dan 16 - 30;Irfan;Y;Y;Y;N;N;Y
HT0041;PT HALIM BANGUN SARANA INDAH;JUMAT;Jefri;Y;Y;Y;N;N;Y
HT0043;PT HOTEL SARANA SIRKUITINDO;BARANG PENGIRIMAN;NO COLLECTOR;Y;Y;Y;Y;N;Y
HT0047;PT. JAKARTA PROPERTINDO;TUKER FAKTUR SEBULAN 2 KALI / ADA TANGGALNYA. MINGGU KE 2 : HARI SELASA.   MINGGU KE 3 : HARI RABU;Susilo;Y;Y;Y;N;N;Y
HT0052;PT. KARYA PROPERTINDO INVESTAMA;SENIN;Tyo;Y;Y;Y;N;N;Y
HT0063;HORISON HOTEL BEKASI;RABU;Yohanes;Y;Y;Y;N;N;Y
HT0069;PT PADMA SUASA;BULANAN - KAMIS MINGGU 1 DAN MINGGU 2;Affen;Y;Y;Y;N;N;Y
HT0076;PT. PRIMA CIPTA SENTOSA;JUMAT;Jefri;Y;Y;Y;N;N;Y
HT0078;PT SANGGRAHA NUSA RAYA;BULANAN -  SELASA MINGGU 1 DAN MINGGU 2;Tyo;Y;Y;Y;N;N;Y
HT0079;PT SARIARTHAMAS HOTEL INTERNATIONAL;BARANG PENGIRIMAN;NO COLLECTOR;Y;N;Y;Y;N;Y
HT0082;PT SETIA MERANTI;SELASA;Irfan;Y;Y;Y;N;N;Y
HT0087;PT SUMMARECON HOTELINDO;BULANAN - RABU MINGGU 1 DAN MINGGU 2;Susilo;Y;Y;Y;N;N;Y
HT0088;PT SUNTER LAKESIDE HOTEL;JUMAT MINGGU KE 2 DAN KE 4;Ridwan;Y;Y;Y;N;N;Y
HT0098;PT. ADHI PUTRA MULIA;BULANAN -  RABU MINGGU 1 DAN MINGGU 2;Jefri;Y;Y;Y;N;N;Y
HT0101;PT CIPUTRA SENTRA;KAMIS;Jhon;Y;Y;Y;N;N;Y
HT0106;PT INDOBUILDCO;BARANG PENGIRIMAN;Affen;Y;Y;Y;Y;N;N
HT0107;PT JAVA PARADISE ISLAND;BULANAN. TIAP JUMAT MINGGU 1 ATAU KE 2;Tyo;Y;Y;Y;N;N;Y
HT0108;PT JAYA MANDARIN AGUNG;BARANG PENGIRIMAN;NO COLLECTOR;Y;Y;Y;Y;N;N
HT0110;PT LINGGA HAMPARAN KRIDA;BULANAN. SELASA MINGGU 1 ATAU KE 2;Affen;Y;Y;Y;N;N;Y
HT0111;PT MAHAKAM EKAGRAHA;RABU;Ilyas;Y;Y;Y;N;N;Y
HT0115;PT. MILLENIUM SIRIH JKT HOTEL;BULANAN. SELASA MINGGU 1 ATAU KE 2;Jefri;Y;Y;Y;N;N;Y
HT0120;PT PURI DHARMAWANGSA;KAMIS;Amir;Y;Y;Y;N;N;Y
HT0129;PT SWADHARMA KERRY SATYA;SEBULAN 2 KALI TUNGGU RINCIAN;NO COLLECTOR;Y;Y;Y;N;N;N
HT0131;LE MEREDIEN;BARANG PENGIRIMAN;NO COLLECTOR;Y;N;Y;Y;N;N
HT0133;PT RASUNA RESIDENCE DEVELOPMENT;RABU MINGGU KE 2 & 3;Irfan;Y;Y;Y;N;N;Y
HT0137;PT SUMMARECON HOTELINDO;BULANAN - RABU MINGGU 1 DAN MINGGU 2;Yohanes;Y;Y;Y;N;N;Y
HT0141;PT SENAYAN TRIKARYA SEMPANA;BULANAN.  JUMAT MINGGU 1 ATAU KE 2;Jefri;Y;Y;Y;N;N;Y
HT0146;PT CIPUTRA ADIGRAHA;BARANG PENGIRIMAN;NO COLLECTOR;Y;N;Y;Y;N;N
HT0147;MERAPI MERBABU;RABU;Yohanes;Y;Y;Y;N;N;Y
HT0148;PT WAHANA RAYA;BARANG PENGIRIMAN;NO COLLECTOR;Y;Y;Y;Y;N;Y
HT0159;PT. NUSA PRATAMA PROPERTY;KAMIS;Ferry;Y;Y;Y;N;N;Y
HT0160;PT. VISI UTAMA INDONESIA;SELASA;Bayu;Y;Y;Y;N;N;Y
HT0164;PT. PRISMA ROYAL HOTEL;SELASA;Bayu;Y;Y;Y;N;N;Y
HT0174;PT SHIMA GRAHA UTAMA;SEBULAN 2 KALI / MINGGU KE 1 DAN KE 3.  tanggal  TF  =  15-17 periode 1-15.  tanggal  TF  =  1-3  periode 16-31;Ridwan;Y;Y;Y;N;N;Y
HT0176;GRAHA SIMATUPANG PROPERTINDO;SEBULAN 2 KALI / MINGGU KE 1 DAN KE 3.  tanggal  TF  =  15-17 periode 1-15.  tanggal  TF  =  1-3  periode 16-31;Ilyas;Y;Y;Y;N;N;Y
HT0179;PT. MEGAH MITRA SUKSES;SELASA;Yohanes;Y;Y;Y;N;N;Y
HT0182;PT. ARTISAN WAHYU;BULANAN.  KAMIS MINGGU 1 ATAU KE 2;Ilyas;Y;Y;Y;N;N;Y
HT0183;PT. MAKMUR ABADI MULIA;SELASA;Ridwan;Y;Y;Y;N;N;Y
HT0188;PT AMARYLLIS WIJAYA;JUMAT;Ilyas;Y;Y;Y;N;N;Y
HT0191;PT. SENTUL DAMAI RESORT;BARANG PENGIRIMAN;NO COLLECTOR;Y;N;Y;Y;N;Y
HT0192;PONDOK INDAH TOWER;JUMAT;Ilyas;Y;Y;Y;N;N;Y
HT0197;PT GREENLAND RAJAWALI UTAMA;BULANAN.  JUMAT MINGGU 1 ATAU KE 2;NO COLLECTOR;Y;N;Y;Y;N;Y
HT0208;PT HOTEL UTAMA BEKASI;SELASA;Ridwan;Y;Y;Y;N;N;Y
HT0209;PT MAHKOTA DUTA BINTANG JAYA;RABU;Yohanes;Y;Y;Y;N;N;Y
HT0212;PT GRAHAWITA SANTIKA;TUKAR TIAP tgl 3 & 17.  invoice tgl 1-15 dan 16-31 ;Jefri;Y;Y;Y;N;N;Y
HT0216;PT GUNUNG ANSA;RABU;Jefri;Y;Y;Y;N;N;Y
HT0223;PT. SUMAMPAU HOTEL DAN RESORT;SETIAP AWAL BULAN TGL 1-5;NO COLLECTOR;Y;Y;Y;N;N;Y
HT0225;SAHID HOTEL CIKARANG;BULANAN . SELASA  MINGGU 1 ATAU KE 2;Ridwan;Y;Y;Y;N;N;Y
HT0236;PT ISTANA ALAM RAYA;KAMIS;Budi;Y;Y;Y;N;N;Y
HT0242;PT. SENTUL CITY TBK;BARANG PENGIRIMAN;NO COLLECTOR;Y;N;Y;Y;N;Y
HT0244;PT TRIKARYA IDEA SAKTI;KAMIS;Jefri;Y;Y;Y;N;N;Y
HT0246;PT SINAR RAJAWALI;SENIN;Jefri;Y;Y;Y;N;N;Y
HT0257;PT LIEBRO SEJAHTERA;RABU;Jefri;Y;Y;Y;N;N;Y
HT0262;PT. PONDOK INDAH HOTEL;SEBULAN 2X MINTA RINCIAN DULU / COCOKAN DULU;Ilyas;Y;Y;Y;N;N;Y
HT0268;PT DUTA ANGGADA REALITY;RABU;Jefri;Y;Y;Y;N;N;Y
HT0271;PT MENSANA ANEKA PROPERTI;SENIN MINGGU KE 2 DAN KE 4;Yanto;Y;Y;Y;N;N;Y
HT0281;PT GRAHA KARTIKA ANUGERAH;KAMIS MINGGU KE 2 & 3;Jefri;Y;Y;Y;N;N;Y
HT0292;PT KARAWANG CITY DEVELOPMENT;BARANG PENGIRIMAN;NO COLLECTOR;Y;N;Y;Y;N;Y
HT0293;PT WIJAYA KARYA REALITY;JUMAT;Bayu;Y;Y;Y;N;N;Y
HT0304;PT BUANA BOTANI ELOK;BARANG PENGIRIMAN;NO COLLECTOR;Y;N;Y;Y;N;Y
HT0308;PT MAMBRUK CIKONENG INDONESIA;BARANG PENGIRIMAN;NO COLLECTOR;Y;N;Y;Y;N;Y
HT0325;PT WIJAYA KARYA BANGUNAN GEDUNG TBK;BARANG PENGIRIMAN;NO COLLECTOR;Y;N;Y;Y;N;Y
HT0317;KERJA SAMA OPERASI KURNADI SEJAHTERA HOTELINDO;KAMIS;Jefri;Y;Y;Y;N;N;Y
HT0319;PT. CITRA KIRANA APARTEL;SELASA MINGGU 1 DAN 3;Jhon;Y;Y;Y;N;N;Y
HT0320;PT ANUGRAH KARYA BANGSA;SENIN;Yanto;Y;Y;Y;N;N;Y
HT0322;PT. PSW ANTASARI HOTEL;KAMIS;Amir;Y;Y;Y;N;N;Y
HT0324;PT ASIA VAKANSI;BARANG PENGIRIMAN;NO COLLECTOR;Y;N;Y;Y;N;Y
HT0326;PT BETAWI MAJU BERSAMA;SENIN;Bayu;Y;Y;Y;N;N;Y
HT0328;PT RASUNA RESIDENCE DEVELOPMENT;RABU MINGGU KE 2 & 3;Irfan;Y;Y;Y;N;N;Y
HT0330;PT KREASI CIPTA KARSA;BARANG PENGIRIMAN;NO COLLECTOR;Y;N;Y;Y;N;N
HT0335;PT SINGGASANA MAJU SUKSES;BARANG PENGIRIMAN;NO COLLECTOR;Y;Y;Y;Y;N;Y
HT0337;PT GRAHA INDAH BUANATAMA;BULANAN. RABU  MINGGU 1 ATAU KE 2;Imam;Y;Y;Y;N;N;Y
HT0338;PT JAYA HOTEL LESTARI;SELASA;Ilyas;Y;Y;Y;N;N;Y
HT0339;PT BUANA SABAS FATTAH;RABU;Bayu;Y;Y;Y;N;N;Y
HT0340;PT MADYA LINGKAR ARTHA;SELASA;Budi;Y;Y;Y;N;N;Y
HT0342;PT MODERN ASIA HOSPITALY;BARANG PENGIRIMAN;NO COLLECTOR;Y;N;Y;Y;N;Y
HT0344;PT MANGGALA AKASHA INDONESIA;BARANG PENGIRIMAN;NO COLLECTOR;Y;N;Y;Y;N;Y
HT0347;PT INNOVINDO KREASI BERSAMA;BARANG PENGIRIMAN;NO COLLECTOR;Y;N;Y;Y;N;Y
HT0354;PT KUSUMA INTI ABADI;JUMAT;Affen;Y;Y;Y;N;N;Y
HT0356;PT KRAKATAU SARANA PROPERTI;BARANG PENGIRIMAN;NO COLLECTOR;Y;N;Y;Y;N;Y
RS0508;PT PERKASA TUNGGAL MANDIRI;KAMIS;Ferry;Y;Y;Y;N;N;Y
RS0731;PT STACO GRAHA;BULANAN. JUMAT MINGGU 1 ATAU KE 2;Irfan;Y;Y;Y;N;N;Y
HT0116;PT PERMADANI KHATULISTIWA NUSANTARA;BARANG PENGIRIMAN;NO COLLECTOR;Y;N;Y;Y;N;Y
HT0358;PT. CIKARANG BERKAT MAKMUR;SELASA;Ridwan;Y;Y;Y;N;N;Y
HT0365;PT. LAYANA BOGA CATERING;SELASA;Ridwan;Y;Y;Y;N;N;Y
HT0376;GLOBAL PILAR SUKSES;SELASA;Ridwan;Y;Y;Y;N;N;Y
HT0310;PT. GRAHA MAJU BERSAMA;SELASA;Ferry;Y;Y;Y;N;N;Y
HT0046;PT JAKARTA INTERNATIONAL HOTEL;SELASA ;Jefri;Y;Y;Y;Y;N;Y
HT0364;PT. SANGA JIWA;RABU;Bibit;Y;Y;Y;Y;N;Y
HT0299;PT. PAKONS HOTELINDO SUKSES;KAMIS;Bayu;Y;Y;Y;Y;N;Y
HT0260;PT TRI PURA INDAH PERSADA;TIAP TGL 15;Jefri;Y;Y;Y;Y;N;Y
HT0373;PT WIJAYA KARYA REALITY;JUMAT;Bayu;Y;Y;Y;N;N;Y
HT0360;PT. SELAT NIAGATAMA;JUMAT;Tyo;Y;Y;Y;N;N;Y
HT0136;BUKIT DAMAR;BARANG PENGIRIMAN;NO COLLECTOR;Y;N;Y;Y;N;Y
HT0363;PT. PESONA EQUATOR;BARANG PENGIRIMAN;NO COLLECTOR;Y;N;Y;Y;N;Y
HT0206;PT. SENKUIT INTERNASIONAL HOTEL;BARANG PENGIRIMAN;NO COLLECTOR;Y;N;Y;Y;N;Y
HT0361;PT. PANCAR PESONA INDAH;BARANG PENGIRIMAN;NO COLLECTOR;Y;N;Y;Y;N;Y
